A	2	O	(45.573678, -73.169632)	-->	(45.509445, -73.569131)	7h00	8h00	16h00	23h59	;
B	2	O	(45.551323, -73.230400)	-->	(45.507505, -73.564496)	7h00	8h00	16h00	23h59	;
C	2	O	(45.512001, -73.575912)	-->	(45.519459, -73.392963)	7h00	8h00	16h00	23h59	;
D	2	O	(45.522225, -73.568058)	-->	(45.514181, -73.531258)	7h00	8h00	16h00	23h59	;
