A:	+A-A	+A-A	43301m
B:	+B-B	+B-B	62364m
C:	+C+G-G-C	+C+G-G-C	41189m
D:	+D-D	+D-D	60819m
E:	+E-E	+E-E	12235m
F:	+F+K-K-F	+F+K-K-F	69630m
G:	+G+C-C-G	+G+C-C-G	41189m
H:	+H-H	+H-H	41483m
I:	+I-I	+I-I	99625m
J:	+J-J	+J-J	60019m
K:	+K-K	+K-K	34448m
L:	+L-L	+L-L	45056m
M:	+M-M	+M-M	42239m
N:	+N-N	+N-N	3418m
O:	+O-O	+O-O	32752m
P:	+P-P	+P-P	4238m
Q:	+Q-Q	+Q-Q	22282m
R:	+R-R	+R-R	27180m
S:	+S-S	+S-S	10564m
T:	+T+W-W-T	+T+W-W-T	40503m
U:	+U-U	+U-U	56155m
V:	+V-V	+V-V	52266m
W:	+W+T-T-W	+W+T-T-W	40503m
X:	+X+D-D-X	+X+D-D-X	76973m
Y:	+Y+Q-Q-Y	+Y+Q-Q-Y	49132m
Z:	+Z-Z	+Z-Z	16068m
